{
  "ERSEndPoint": {
    "id": "99a4cb11-ae88-11e9-8724-623ffb053f44",
    "name": "00:00:00:01:2B:8E",
    "mac": "00:00:00:01:2B:8E",
    "profileId": "44031480-8c00-11e6-996c-525400b48521",
    "staticProfileAssignment": false,
    "groupId": "aa10ae00-8bff-11e6-996c-525400b48521",
    "staticGroupAssignment": false,
    "portalUser": "",
    "identityStore": "",
    "identityStoreId": "",
    "link": {
      "rel": "self",
      "href": "https://isehost.domain.com:9060/ers/config/endpoint/name/00:00:00:01:2B:8E",
      "type": "application/json"
    }
  }
}
